%YAML 1.1
%TAG !u! tag:unity3d.com,2011:
--- !u!74 &7400000
AnimationClip:
  m_ObjectHideFlags: 0
  m_CorrespondingSourceObject: {fileID: 0}
  m_PrefabInstance: {fileID: 0}
  m_PrefabAsset: {fileID: 0}
  m_Name: Arrowhead
  serializedVersion: 6
  m_Legacy: 0
  m_Compressed: 0
  m_UseHighQualityCurve: 1
  m_RotationCurves: []
  m_CompressedRotationCurves: []
  m_EulerCurves: []
  m_PositionCurves: []
  m_ScaleCurves: []
  m_FloatCurves: []
  m_PPtrCurves:
  - curve:
    - time: 0
      value: {fileID: 21300000, guid: 84ca4f2885184a4409bc62c2dbbba56f, type: 3}
    - time: 0.004166667
      value: {fileID: 21300000, guid: bc021daecfcc4454884250d86377773d, type: 3}
    - time: 0.008333334
      value: {fileID: 21300000, guid: c71465ca8a0bf2845a3d53249ec355a0, type: 3}
    - time: 0.0125
      value: {fileID: 21300000, guid: 742655a0d97af8247af3c0dcb7333a96, type: 3}
    - time: 0.016666668
      value: {fileID: 21300000, guid: 339f2aef088ba5544be1c5c03298fcec, type: 3}
    - time: 0.020833334
      value: {fileID: 21300000, guid: 970877426474a0643b857149a2f14d80, type: 3}
    - time: 0.025
      value: {fileID: 21300000, guid: ca2d2e905e3ee2348af6c65de9a65400, type: 3}
    - time: 0.029166667
      value: {fileID: 21300000, guid: 18cec04c1671ac246bb7c747d41a8ad9, type: 3}
    - time: 0.033333335
      value: {fileID: 21300000, guid: 51a70b7da53f116408a55b480e7a51b7, type: 3}
    - time: 0.0375
      value: {fileID: 21300000, guid: 3c6e8031e3337f14ab7c5c8f1ff38d1f, type: 3}
    - time: 0.041666668
      value: {fileID: 21300000, guid: 7a18d2b2d4afc6c42bf5d6bbe1db9d67, type: 3}
    - time: 0.045833334
      value: {fileID: 21300000, guid: 118adf826ad2f5d4da37e6901b2d27e0, type: 3}
    - time: 0.05
      value: {fileID: 21300000, guid: acd5dc888e3befa449612034550c65fd, type: 3}
    - time: 0.054166667
      value: {fileID: 21300000, guid: 26eb57cf958a7ed4eb1a3595901d84ac, type: 3}
    - time: 0.058333334
      value: {fileID: 21300000, guid: 0148295f2e8869c4894a990bf06c39ed, type: 3}
    - time: 0.0625
      value: {fileID: 21300000, guid: dad245fefaed6d941b9b0465060c3ebb, type: 3}
    - time: 0.06666667
      value: {fileID: 21300000, guid: cf59b8697871ef84fa51ca404680fc25, type: 3}
    attribute: m_Sprite
    path: 
    classID: 212
    script: {fileID: 0}
  m_SampleRate: 240
  m_WrapMode: 0
  m_Bounds:
    m_Center: {x: 0, y: 0, z: 0}
    m_Extent: {x: 0, y: 0, z: 0}
  m_ClipBindingConstant:
    genericBindings:
    - serializedVersion: 2
      path: 0
      attribute: 0
      script: {fileID: 0}
      typeID: 212
      customType: 23
      isPPtrCurve: 1
    pptrCurveMapping:
    - {fileID: 21300000, guid: 84ca4f2885184a4409bc62c2dbbba56f, type: 3}
    - {fileID: 21300000, guid: bc021daecfcc4454884250d86377773d, type: 3}
    - {fileID: 21300000, guid: c71465ca8a0bf2845a3d53249ec355a0, type: 3}
    - {fileID: 21300000, guid: 742655a0d97af8247af3c0dcb7333a96, type: 3}
    - {fileID: 21300000, guid: 339f2aef088ba5544be1c5c03298fcec, type: 3}
    - {fileID: 21300000, guid: 970877426474a0643b857149a2f14d80, type: 3}
    - {fileID: 21300000, guid: ca2d2e905e3ee2348af6c65de9a65400, type: 3}
    - {fileID: 21300000, guid: 18cec04c1671ac246bb7c747d41a8ad9, type: 3}
    - {fileID: 21300000, guid: 51a70b7da53f116408a55b480e7a51b7, type: 3}
    - {fileID: 21300000, guid: 3c6e8031e3337f14ab7c5c8f1ff38d1f, type: 3}
    - {fileID: 21300000, guid: 7a18d2b2d4afc6c42bf5d6bbe1db9d67, type: 3}
    - {fileID: 21300000, guid: 118adf826ad2f5d4da37e6901b2d27e0, type: 3}
    - {fileID: 21300000, guid: acd5dc888e3befa449612034550c65fd, type: 3}
    - {fileID: 21300000, guid: 26eb57cf958a7ed4eb1a3595901d84ac, type: 3}
    - {fileID: 21300000, guid: 0148295f2e8869c4894a990bf06c39ed, type: 3}
    - {fileID: 21300000, guid: dad245fefaed6d941b9b0465060c3ebb, type: 3}
    - {fileID: 21300000, guid: cf59b8697871ef84fa51ca404680fc25, type: 3}
  m_AnimationClipSettings:
    serializedVersion: 2
    m_AdditiveReferencePoseClip: {fileID: 0}
    m_AdditiveReferencePoseTime: 0
    m_StartTime: 0
    m_StopTime: 0.07083334
    m_OrientationOffsetY: 0
    m_Level: 0
    m_CycleOffset: 0
    m_HasAdditiveReferencePose: 0
    m_LoopTime: 1
    m_LoopBlend: 0
    m_LoopBlendOrientation: 0
    m_LoopBlendPositionY: 0
    m_LoopBlendPositionXZ: 0
    m_KeepOriginalOrientation: 0
    m_KeepOriginalPositionY: 1
    m_KeepOriginalPositionXZ: 0
    m_HeightFromFeet: 0
    m_Mirror: 0
  m_EditorCurves: []
  m_EulerEditorCurves: []
  m_HasGenericRootTransform: 0
  m_HasMotionFloatCurves: 0
  m_Events: []
