%YAML 1.1
%TAG !u! tag:unity3d.com,2011:
--- !u!74 &7400000
AnimationClip:
  m_ObjectHideFlags: 0
  m_CorrespondingSourceObject: {fileID: 0}
  m_PrefabInstance: {fileID: 0}
  m_PrefabAsset: {fileID: 0}
  m_Name: Waterhead
  serializedVersion: 6
  m_Legacy: 0
  m_Compressed: 0
  m_UseHighQualityCurve: 1
  m_RotationCurves: []
  m_CompressedRotationCurves: []
  m_EulerCurves: []
  m_PositionCurves: []
  m_ScaleCurves: []
  m_FloatCurves: []
  m_PPtrCurves:
  - curve:
    - time: 0
      value: {fileID: 21300000, guid: b3cfdb9503beb294987fd137530363df, type: 3}
    - time: 0.016666668
      value: {fileID: 21300000, guid: 462ab9e376b641a44ae2a1aaac264bbc, type: 3}
    - time: 0.033333335
      value: {fileID: 21300000, guid: ee5c68b0dd689f3418034e70f9c7363a, type: 3}
    - time: 0.05
      value: {fileID: 21300000, guid: ad92231e23be03b4aac8aecc97a79c76, type: 3}
    - time: 0.06666667
      value: {fileID: 21300000, guid: 2370d266965549f4dad608e70ad45926, type: 3}
    - time: 0.083333336
      value: {fileID: 21300000, guid: f7319dd5e271b35418473be30c77ee1f, type: 3}
    - time: 0.1
      value: {fileID: 21300000, guid: 4bcb997bfe00d5249a84108189cb1977, type: 3}
    - time: 0.11666667
      value: {fileID: 21300000, guid: c29fac78f2612444488bd5e5770bd5a5, type: 3}
    - time: 0.13333334
      value: {fileID: 21300000, guid: ab116272d0ca6f54eafea6137ee15254, type: 3}
    - time: 0.15
      value: {fileID: 21300000, guid: 076f64534b94ab74b98522049f6b4d4b, type: 3}
    - time: 0.16666667
      value: {fileID: 21300000, guid: 978be0f0bdad08c41a387d19e8761c6b, type: 3}
    - time: 0.18333334
      value: {fileID: 21300000, guid: fcb9b32bcf2aa4c4dbabe43c374cd0c4, type: 3}
    - time: 0.2
      value: {fileID: 21300000, guid: 59b8597cb1d03434590f419cc431c900, type: 3}
    - time: 0.21666667
      value: {fileID: 21300000, guid: 399a04522e439044690bcf4f086908b4, type: 3}
    attribute: m_Sprite
    path: 
    classID: 212
    script: {fileID: 0}
  m_SampleRate: 60
  m_WrapMode: 0
  m_Bounds:
    m_Center: {x: 0, y: 0, z: 0}
    m_Extent: {x: 0, y: 0, z: 0}
  m_ClipBindingConstant:
    genericBindings:
    - serializedVersion: 2
      path: 0
      attribute: 0
      script: {fileID: 0}
      typeID: 212
      customType: 23
      isPPtrCurve: 1
    pptrCurveMapping:
    - {fileID: 21300000, guid: b3cfdb9503beb294987fd137530363df, type: 3}
    - {fileID: 21300000, guid: 462ab9e376b641a44ae2a1aaac264bbc, type: 3}
    - {fileID: 21300000, guid: ee5c68b0dd689f3418034e70f9c7363a, type: 3}
    - {fileID: 21300000, guid: ad92231e23be03b4aac8aecc97a79c76, type: 3}
    - {fileID: 21300000, guid: 2370d266965549f4dad608e70ad45926, type: 3}
    - {fileID: 21300000, guid: f7319dd5e271b35418473be30c77ee1f, type: 3}
    - {fileID: 21300000, guid: 4bcb997bfe00d5249a84108189cb1977, type: 3}
    - {fileID: 21300000, guid: c29fac78f2612444488bd5e5770bd5a5, type: 3}
    - {fileID: 21300000, guid: ab116272d0ca6f54eafea6137ee15254, type: 3}
    - {fileID: 21300000, guid: 076f64534b94ab74b98522049f6b4d4b, type: 3}
    - {fileID: 21300000, guid: 978be0f0bdad08c41a387d19e8761c6b, type: 3}
    - {fileID: 21300000, guid: fcb9b32bcf2aa4c4dbabe43c374cd0c4, type: 3}
    - {fileID: 21300000, guid: 59b8597cb1d03434590f419cc431c900, type: 3}
    - {fileID: 21300000, guid: 399a04522e439044690bcf4f086908b4, type: 3}
  m_AnimationClipSettings:
    serializedVersion: 2
    m_AdditiveReferencePoseClip: {fileID: 0}
    m_AdditiveReferencePoseTime: 0
    m_StartTime: 0
    m_StopTime: 0.23333333
    m_OrientationOffsetY: 0
    m_Level: 0
    m_CycleOffset: 0
    m_HasAdditiveReferencePose: 0
    m_LoopTime: 1
    m_LoopBlend: 0
    m_LoopBlendOrientation: 0
    m_LoopBlendPositionY: 0
    m_LoopBlendPositionXZ: 0
    m_KeepOriginalOrientation: 0
    m_KeepOriginalPositionY: 1
    m_KeepOriginalPositionXZ: 0
    m_HeightFromFeet: 0
    m_Mirror: 0
  m_EditorCurves: []
  m_EulerEditorCurves: []
  m_HasGenericRootTransform: 0
  m_HasMotionFloatCurves: 0
  m_Events: []
